%YAML 1.1
%TAG !u! tag:unity3d.com,2011:
--- !u!21 &2100000
Material:
  serializedVersion: 6
  m_ObjectHideFlags: 0
  m_CorrespondingSourceObject: {fileID: 0}
  m_PrefabInstance: {fileID: 0}
  m_PrefabAsset: {fileID: 0}
  m_Name: skybox_minions_mat
  m_Shader: {fileID: 4800000, guid: ea0c490b464e13b47bd07e1d558925e1, type: 3}
  m_ShaderKeywords: 
  m_LightmapFlags: 4
  m_EnableInstancingVariants: 0
  m_DoubleSidedGI: 0
  m_CustomRenderQueue: -1
  stringTagMap: {}
  disabledShaderPasses: []
  m_SavedProperties:
    serializedVersion: 3
    m_TexEnvs:
    - _BaseNoise:
        m_Texture: {fileID: 2800000, guid: f8385eb8f7cda03489a807ff200a8a00, type: 3}
        m_Scale: {x: 1, y: 1}
        m_Offset: {x: 0, y: 0}
    - _BumpMap:
        m_Texture: {fileID: 0}
        m_Scale: {x: 1, y: 1}
        m_Offset: {x: 0, y: 0}
    - _DetailAlbedoMap:
        m_Texture: {fileID: 0}
        m_Scale: {x: 1, y: 1}
        m_Offset: {x: 0, y: 0}
    - _DetailMask:
        m_Texture: {fileID: 0}
        m_Scale: {x: 1, y: 1}
        m_Offset: {x: 0, y: 0}
    - _DetailNormalMap:
        m_Texture: {fileID: 0}
        m_Scale: {x: 1, y: 1}
        m_Offset: {x: 0, y: 0}
    - _Distort:
        m_Texture: {fileID: 2800000, guid: b752040ca67429048a3ef7c5091ae8ec, type: 3}
        m_Scale: {x: 1, y: 1}
        m_Offset: {x: 0, y: 0}
    - _EmissionMap:
        m_Texture: {fileID: 0}
        m_Scale: {x: 1, y: 1}
        m_Offset: {x: 0, y: 0}
    - _MainTex:
        m_Texture: {fileID: 0}
        m_Scale: {x: 1, y: 1}
        m_Offset: {x: 0, y: 0}
    - _MetallicGlossMap:
        m_Texture: {fileID: 0}
        m_Scale: {x: 1, y: 1}
        m_Offset: {x: 0, y: 0}
    - _OcclusionMap:
        m_Texture: {fileID: 0}
        m_Scale: {x: 1, y: 1}
        m_Offset: {x: 0, y: 0}
    - _ParallaxMap:
        m_Texture: {fileID: 0}
        m_Scale: {x: 1, y: 1}
        m_Offset: {x: 0, y: 0}
    - _SecNoise:
        m_Texture: {fileID: 2800000, guid: 610d1b856a93ca845a082f268403ca4d, type: 3}
        m_Scale: {x: 1, y: 1}
        m_Offset: {x: 0, y: 0}
    - _Stars:
        m_Texture: {fileID: 2800000, guid: 6a51f93624bfe6c44b3e67f8a24086f4, type: 3}
        m_Scale: {x: 1, y: 1}
        m_Offset: {x: 0, y: 0}
    m_Floats:
    - _BaseNoiseScale: 0.425
    - _Brightness: 3.18
    - _BumpScale: 1
    - _CloudCutoff: 1
    - _Cutoff: 0.5
    - _DetailNormalMapScale: 1
    - _DistortScale: 0.067
    - _Distortion: 1
    - _DstBlend: 0
    - _FUZZY: 0
    - _Fuzziness: 0.579
    - _FuzzinessUnder: 0
    - _GlossMapScale: 1
    - _Glossiness: 0.5
    - _GlossyReflections: 1
    - _HorizonIntensity: 0.25
    - _Metallic: 0
    - _Mode: 0
    - _MoonOffset: -1
    - _MoonRadius: 0
    - _OcclusionStrength: 1
    - _OffsetHorizon: 0.146
    - _Parallax: 0.02
    - _SecNoiseScale: 0.075
    - _SmoothnessTextureChannel: 0
    - _SpecularHighlights: 1
    - _Speed: 1
    - _SrcBlend: 1
    - _StarsCutoff: 0.099
    - _StarsSpeed: 0.279
    - _SunRadius: 0
    - _UVSec: 0
    - _ZWrite: 1
    m_Colors:
    - _CloudColorDayEdge: {r: 1, g: 1, b: 1, a: 1}
    - _CloudColorDayMain: {r: 0.8, g: 0.9, b: 0.8, a: 1}
    - _CloudColorDayUnder: {r: 0.6, g: 0.7, b: 0.6, a: 1}
    - _CloudColorNightEdge: {r: 0, g: 1, b: 1, a: 1}
    - _CloudColorNightMain: {r: 0, g: 0.2, b: 0.8, a: 1}
    - _CloudColorNightUnder: {r: 0, g: 0.2, b: 0.6, a: 1}
    - _Color: {r: 1, g: 1, b: 1, a: 1}
    - _DayBottomColor: {r: 0.06674972, g: 0.9433962, b: 0.8787738, a: 1}
    - _DayTopColor: {r: 0.38470095, g: 0.8962264, b: 0.84297407, a: 1}
    - _EmissionColor: {r: 0, g: 0, b: 0, a: 1}
    - _HorizonColorDay: {r: 0.04160734, g: 0.4705377, b: 0.5188679, a: 1}
    - _HorizonColorNight: {r: 0, g: 0.28559113, b: 1, a: 1}
    - _MoonColor: {r: 1, g: 1, b: 1, a: 1}
    - _NightBottomColor: {r: 1, g: 1, b: 1, a: 1}
    - _NightTopColor: {r: 0.2830189, g: 0.2830189, b: 0.2830189, a: 1}
    - _StarsSkyColor: {r: 0.46666667, g: 0.9764706, b: 1, a: 1}
    - _SunColor: {r: 1, g: 1, b: 1, a: 1}
    - _SunSet: {r: 0.64627093, g: 0.9716981, b: 0.9627823, a: 1}
