%YAML 1.1
%TAG !u! tag:unity3d.com,2011:
--- !u!1001 &4294141290176754558
PrefabInstance:
  m_ObjectHideFlags: 0
  serializedVersion: 2
  m_Modification:
    m_TransformParent: {fileID: 0}
    m_Modifications:
    - target: {fileID: 100000, guid: b4980ea462eebeb498f66727cf9f18a5, type: 3}
      propertyPath: m_Name
      value: bird_paradise
      objectReference: {fileID: 0}
    - target: {fileID: 400000, guid: b4980ea462eebeb498f66727cf9f18a5, type: 3}
      propertyPath: m_LocalPosition.x
      value: 60
      objectReference: {fileID: 0}
    - target: {fileID: 400000, guid: b4980ea462eebeb498f66727cf9f18a5, type: 3}
      propertyPath: m_LocalPosition.y
      value: 0
      objectReference: {fileID: 0}
    - target: {fileID: 400000, guid: b4980ea462eebeb498f66727cf9f18a5, type: 3}
      propertyPath: m_LocalPosition.z
      value: 4
      objectReference: {fileID: 0}
    - target: {fileID: 400000, guid: b4980ea462eebeb498f66727cf9f18a5, type: 3}
      propertyPath: m_LocalRotation.x
      value: -0
      objectReference: {fileID: 0}
    - target: {fileID: 400000, guid: b4980ea462eebeb498f66727cf9f18a5, type: 3}
      propertyPath: m_LocalRotation.y
      value: 0.48116827
      objectReference: {fileID: 0}
    - target: {fileID: 400000, guid: b4980ea462eebeb498f66727cf9f18a5, type: 3}
      propertyPath: m_LocalRotation.z
      value: -0
      objectReference: {fileID: 0}
    - target: {fileID: 400000, guid: b4980ea462eebeb498f66727cf9f18a5, type: 3}
      propertyPath: m_LocalRotation.w
      value: 0.8766283
      objectReference: {fileID: 0}
    - target: {fileID: 400000, guid: b4980ea462eebeb498f66727cf9f18a5, type: 3}
      propertyPath: m_RootOrder
      value: 0
      objectReference: {fileID: 0}
    - target: {fileID: 400000, guid: b4980ea462eebeb498f66727cf9f18a5, type: 3}
      propertyPath: m_LocalEulerAnglesHint.x
      value: 0
      objectReference: {fileID: 0}
    - target: {fileID: 400000, guid: b4980ea462eebeb498f66727cf9f18a5, type: 3}
      propertyPath: m_LocalEulerAnglesHint.y
      value: 57.523003
      objectReference: {fileID: 0}
    - target: {fileID: 400000, guid: b4980ea462eebeb498f66727cf9f18a5, type: 3}
      propertyPath: m_LocalEulerAnglesHint.z
      value: 0
      objectReference: {fileID: 0}
    - target: {fileID: 400000, guid: b4980ea462eebeb498f66727cf9f18a5, type: 3}
      propertyPath: m_LocalScale.x
      value: 1.3
      objectReference: {fileID: 0}
    - target: {fileID: 400000, guid: b4980ea462eebeb498f66727cf9f18a5, type: 3}
      propertyPath: m_LocalScale.y
      value: 1.3
      objectReference: {fileID: 0}
    - target: {fileID: 400000, guid: b4980ea462eebeb498f66727cf9f18a5, type: 3}
      propertyPath: m_LocalScale.z
      value: 1.3
      objectReference: {fileID: 0}
    - target: {fileID: 2300000, guid: b4980ea462eebeb498f66727cf9f18a5, type: 3}
      propertyPath: m_Materials.Array.data[0]
      value: 
      objectReference: {fileID: 2100000, guid: a71141f3f318a6846b246827834a680d, type: 2}
    - target: {fileID: 2300000, guid: b4980ea462eebeb498f66727cf9f18a5, type: 3}
      propertyPath: m_CastShadows
      value: 1
      objectReference: {fileID: 0}
    - target: {fileID: 2300000, guid: b4980ea462eebeb498f66727cf9f18a5, type: 3}
      propertyPath: m_ReceiveShadows
      value: 1
      objectReference: {fileID: 0}
    m_RemovedComponents: []
  m_SourcePrefab: {fileID: 100100000, guid: b4980ea462eebeb498f66727cf9f18a5, type: 3}
