# Blender v2.77 (sub 0) OBJ File: 'wall.blend'
# www.blender.org
mtllib wall.mtl
o Cube.018_Cube.020
v -1.077194 0.045277 4.996242
v -1.077194 7.692964 4.996242
v -1.077194 0.045277 -5.006520
v -1.077194 7.692964 -5.006520
v 1.077193 0.045277 4.996242
v 1.077203 7.692964 4.996242
v 1.077193 0.045277 -5.006520
v 1.077193 7.692964 -5.006520
vt 0.3811 0.0999
vt 0.5095 0.0999
vt 0.5095 0.2282
vt 0.3811 0.2282
vt 0.3811 0.0999
vt 0.5095 0.0999
vt 0.5095 0.2282
vt 0.3811 0.2282
vt 0.3811 0.0999
vt 0.5095 0.0999
vt 0.5095 0.2282
vt 0.3811 0.2282
vt 0.3811 0.0999
vt 0.5095 0.0999
vt 0.5095 0.2282
vt 0.3811 0.2282
vt 0.3811 0.0999
vt 0.5095 0.0999
vt 0.5095 0.2282
vt 0.3811 0.2282
vn -1.0000 0.0000 0.0000
vn 0.0000 0.0000 -1.0000
vn 1.0000 -0.0000 -0.0000
vn 0.0000 0.0000 1.0000
vn 0.0000 -1.0000 0.0000
vn 0.0000 1.0000 -0.0000
usemtl None
s off
f 2/1/1 4/2/1 3/3/1 1/4/1
f 4/5/2 8/6/2 7/7/2 3/8/2
f 8/9/3 6/10/3 5/11/3 7/12/3
f 6/13/4 2/14/4 1/15/4 5/16/4
f 1/17/5 3/18/5 7/7/5 5/16/5
f 6/13/6 8/6/6 4/19/6 2/20/6
o Cube.031_Cube.033
v -1.215541 0.279035 4.006874
v -1.289043 0.279035 3.920892
v -1.215541 0.193052 3.920892
v -1.215541 1.475706 4.006874
v -1.215541 1.561689 3.920892
v -1.289043 1.475706 3.920892
v -1.215541 0.279035 1.904908
v -1.215541 0.193052 1.990891
v -1.289043 0.279035 1.990891
v -1.215541 1.561689 1.990891
v -1.215541 1.475706 1.904908
v -1.289043 1.475706 1.990891
v 1.215541 0.279035 4.006874
v 1.215541 0.193052 3.920892
v 1.289043 0.279035 3.920892
v 1.215541 1.561689 3.920892
v 1.215541 1.475706 4.006874
v 1.289043 1.475706 3.920892
v 1.289043 0.279035 1.990891
v 1.215541 0.193052 1.990891
v 1.215541 0.279035 1.904908
v 1.215541 1.561689 1.990891
v 1.289043 1.475706 1.990891
v 1.215541 1.475706 1.904908
v -1.215541 1.943227 5.264132
v -1.289043 1.943227 5.178148
v -1.215541 1.857243 5.178148
v -1.215541 3.139897 5.264132
v -1.215541 3.225881 5.178148
v -1.289043 3.139897 5.178148
v -1.215541 1.943227 3.162165
v -1.215541 1.857244 3.248148
v -1.289043 1.943227 3.248148
v -1.215541 3.225881 3.248148
v -1.215541 3.139897 3.162165
v -1.289043 3.139897 3.248148
v 1.215541 1.943227 5.264132
v 1.215541 1.857243 5.178148
v 1.289043 1.943227 5.178148
v 1.215541 3.225881 5.178148
v 1.215541 3.139897 5.264132
v 1.289043 3.139897 5.178148
v 1.289043 1.943227 3.248148
v 1.215541 1.857244 3.248148
v 1.215541 1.943227 3.162165
v 1.215541 3.225881 3.248148
v 1.289043 3.139897 3.248148
v 1.215541 3.139897 3.162165
v -1.215541 3.607418 4.006874
v -1.289043 3.607418 3.920892
v -1.215541 3.521435 3.920892
v -1.215541 4.804089 4.006874
v -1.215541 4.890072 3.920892
v -1.289043 4.804089 3.920892
v -1.215541 3.607418 1.904908
v -1.215541 3.521435 1.990891
v -1.289043 3.607418 1.990891
v -1.215541 4.890072 1.990891
v -1.215541 4.804089 1.904908
v -1.289043 4.804089 1.990891
v 1.215541 3.607418 4.006874
v 1.215541 3.521435 3.920892
v 1.289043 3.607418 3.920892
v 1.215541 4.890072 3.920892
v 1.215541 4.804089 4.006874
v 1.289043 4.804089 3.920892
v 1.289043 3.607418 1.990891
v 1.215541 3.521435 1.990891
v 1.215541 3.607418 1.904908
v 1.215541 4.890072 1.990891
v 1.289043 4.804089 1.990891
v 1.215541 4.804089 1.904908
v -1.215541 5.271608 5.264132
v -1.289043 5.271608 5.178148
v -1.215541 5.185625 5.178148
v -1.215541 6.468279 5.264132
v -1.215541 6.554262 5.178148
v -1.289043 6.468279 5.178148
v -1.215541 5.271608 3.162165
v -1.215541 5.185625 3.248148
v -1.289043 5.271608 3.248148
v -1.215541 6.554262 3.248148
v -1.215541 6.468279 3.162165
v -1.289043 6.468279 3.248148
v 1.215541 5.271608 5.264132
v 1.215541 5.185625 5.178148
v 1.289043 5.271608 5.178148
v 1.215541 6.554262 5.178148
v 1.215541 6.468279 5.264132
v 1.289043 6.468279 5.178148
v 1.289043 5.271608 3.248148
v 1.215541 5.185625 3.248148
v 1.215541 5.271608 3.162165
v 1.215541 6.554262 3.248148
v 1.289043 6.468279 3.248148
v 1.215541 6.468279 3.162165
v -1.215541 0.279035 1.510588
v -1.289043 0.279035 1.424605
v -1.215541 0.193052 1.424605
v -1.215541 1.475706 1.510588
v -1.215541 1.561689 1.424605
v -1.289043 1.475706 1.424605
v -1.215541 0.279035 -0.591379
v -1.215541 0.193052 -0.505395
v -1.289043 0.279035 -0.505395
v -1.215541 1.561689 -0.505395
v -1.215541 1.475706 -0.591379
v -1.289043 1.475706 -0.505395
v 1.215541 0.279035 1.510588
v 1.215541 0.193052 1.424605
v 1.289043 0.279035 1.424605
v 1.215541 1.561689 1.424605
v 1.215541 1.475706 1.510588
v 1.289043 1.475706 1.424605
v 1.289043 0.279035 -0.505395
v 1.215541 0.193052 -0.505395
v 1.215541 0.279035 -0.591379
v 1.215541 1.561689 -0.505395
v 1.289043 1.475706 -0.505395
v 1.215541 1.475706 -0.591379
v -1.215541 1.943227 2.767845
v -1.289043 1.943227 2.681862
v -1.215541 1.857243 2.681862
v -1.215541 3.139897 2.767845
v -1.215541 3.225881 2.681862
v -1.289043 3.139897 2.681862
v -1.215541 1.943227 0.665879
v -1.215541 1.857244 0.751862
v -1.289043 1.943227 0.751862
v -1.215541 3.225881 0.751862
v -1.215541 3.139897 0.665879
v -1.289043 3.139897 0.751862
v 1.215541 1.943227 2.767845
v 1.215541 1.857243 2.681862
v 1.289043 1.943227 2.681862
v 1.215541 3.225881 2.681862
v 1.215541 3.139897 2.767845
v 1.289043 3.139897 2.681862
v 1.289043 1.943227 0.751862
v 1.215541 1.857244 0.751862
v 1.215541 1.943227 0.665879
v 1.215541 3.225881 0.751862
v 1.289043 3.139897 0.751862
v 1.215541 3.139897 0.665879
v -1.215541 3.607418 1.510588
v -1.289043 3.607418 1.424605
v -1.215541 3.521435 1.424605
v -1.215541 4.804089 1.510588
v -1.215541 4.890072 1.424605
v -1.289043 4.804089 1.424605
v -1.215541 3.607418 -0.591379
v -1.215541 3.521435 -0.505395
v -1.289043 3.607418 -0.505395
v -1.215541 4.890072 -0.505395
v -1.215541 4.804089 -0.591379
v -1.289043 4.804089 -0.505395
v 1.215541 3.607418 1.510588
v 1.215541 3.521435 1.424605
v 1.289043 3.607418 1.424605
v 1.215541 4.890072 1.424605
v 1.215541 4.804089 1.510588
v 1.289043 4.804089 1.424605
v 1.289043 3.607418 -0.505395
v 1.215541 3.521435 -0.505395
v 1.215541 3.607418 -0.591379
v 1.215541 4.890072 -0.505395
v 1.289043 4.804089 -0.505395
v 1.215541 4.804089 -0.591379
v -1.215541 5.271608 2.767845
v -1.289043 5.271608 2.681862
v -1.215541 5.185625 2.681862
v -1.215541 6.468279 2.767845
v -1.215541 6.554262 2.681862
v -1.289043 6.468279 2.681862
v -1.215541 5.271608 0.665879
v -1.215541 5.185625 0.751862
v -1.289043 5.271608 0.751862
v -1.215541 6.554262 0.751862
v -1.215541 6.468279 0.665879
v -1.289043 6.468279 0.751862
v 1.215541 5.271608 2.767845
v 1.215541 5.185625 2.681862
v 1.289043 5.271608 2.681862
v 1.215541 6.554262 2.681862
v 1.215541 6.468279 2.767845
v 1.289043 6.468279 2.681862
v 1.289043 5.271608 0.751862
v 1.215541 5.185625 0.751862
v 1.215541 5.271608 0.665879
v 1.215541 6.554262 0.751862
v 1.289043 6.468279 0.751862
v 1.215541 6.468279 0.665879
v -1.215541 0.279035 -0.985699
v -1.289043 0.279035 -1.071682
v -1.215541 0.193052 -1.071682
v -1.215541 1.475706 -0.985699
v -1.215541 1.561689 -1.071682
v -1.289043 1.475706 -1.071682
v -1.215541 0.279036 -3.087665
v -1.215541 0.193052 -3.001682
v -1.289043 0.279036 -3.001682
v -1.215541 1.561689 -3.001682
v -1.215541 1.475706 -3.087665
v -1.289043 1.475706 -3.001682
v 1.215541 0.279035 -0.985699
v 1.215541 0.193052 -1.071682
v 1.289043 0.279035 -1.071682
v 1.215541 1.561689 -1.071682
v 1.215541 1.475706 -0.985699
v 1.289043 1.475706 -1.071682
v 1.289043 0.279036 -3.001682
v 1.215541 0.193052 -3.001682
v 1.215541 0.279036 -3.087665
v 1.215541 1.561689 -3.001682
v 1.289043 1.475706 -3.001682
v 1.215541 1.475706 -3.087665
v -1.215541 1.943227 0.271558
v -1.289043 1.943227 0.185575
v -1.215541 1.857243 0.185575
v -1.215541 3.139897 0.271558
v -1.215541 3.225881 0.185575
v -1.289043 3.139897 0.185575
v -1.215541 1.943227 -1.830409
v -1.215541 1.857244 -1.744425
v -1.289043 1.943227 -1.744425
v -1.215541 3.225881 -1.744425
v -1.215541 3.139897 -1.830409
v -1.289043 3.139897 -1.744425
v 1.215541 1.943227 0.271558
v 1.215541 1.857243 0.185575
v 1.289043 1.943227 0.185575
v 1.215541 3.225881 0.185575
v 1.215541 3.139897 0.271558
v 1.289043 3.139897 0.185575
v 1.289043 1.943227 -1.744425
v 1.215541 1.857244 -1.744425
v 1.215541 1.943227 -1.830409
v 1.215541 3.225881 -1.744425
v 1.289043 3.139897 -1.744425
v 1.215541 3.139897 -1.830409
v -1.215541 3.607418 -0.985699
v -1.289043 3.607418 -1.071682
v -1.215541 3.521435 -1.071682
v -1.215541 4.804089 -0.985699
v -1.215541 4.890072 -1.071682
v -1.289043 4.804089 -1.071682
v -1.215541 3.607418 -3.087665
v -1.215541 3.521435 -3.001682
v -1.289043 3.607418 -3.001682
v -1.215541 4.890072 -3.001682
v -1.215541 4.804089 -3.087665
v -1.289043 4.804089 -3.001682
v 1.215541 3.607418 -0.985699
v 1.215541 3.521435 -1.071682
v 1.289043 3.607418 -1.071682
v 1.215541 4.890072 -1.071682
v 1.215541 4.804089 -0.985699
v 1.289043 4.804089 -1.071682
v 1.289043 3.607418 -3.001682
v 1.215541 3.521435 -3.001682
v 1.215541 3.607418 -3.087665
v 1.215541 4.890072 -3.001682
v 1.289043 4.804089 -3.001682
v 1.215541 4.804089 -3.087665
v -1.215541 5.271608 0.271558
v -1.289043 5.271608 0.185575
v -1.215541 5.185625 0.185575
v -1.215541 6.468279 0.271558
v -1.215541 6.554262 0.185575
v -1.289043 6.468279 0.185575
v -1.215541 5.271608 -1.830409
v -1.215541 5.185625 -1.744425
v -1.289043 5.271608 -1.744425
v -1.215541 6.554262 -1.744425
v -1.215541 6.468279 -1.830409
v -1.289043 6.468279 -1.744425
v 1.215541 5.271608 0.271558
v 1.215541 5.185625 0.185575
v 1.289043 5.271608 0.185575
v 1.215541 6.554262 0.185575
v 1.215541 6.468279 0.271558
v 1.289043 6.468279 0.185575
v 1.289043 5.271608 -1.744425
v 1.215541 5.185625 -1.744425
v 1.215541 5.271608 -1.830409
v 1.215541 6.554262 -1.744425
v 1.289043 6.468279 -1.744425
v 1.215541 6.468279 -1.830409
v -1.215541 0.279035 -3.481986
v -1.289043 0.279035 -3.567969
v -1.215541 0.193052 -3.567969
v -1.215541 1.475706 -3.481986
v -1.215541 1.561689 -3.567969
v -1.289043 1.475706 -3.567969
v -1.215541 0.279035 -5.583953
v -1.215541 0.193052 -5.497970
v -1.289043 0.279035 -5.497970
v -1.215541 1.561689 -5.497970
v -1.215541 1.475706 -5.583953
v -1.289043 1.475706 -5.497970
v 1.215541 0.279035 -3.481986
v 1.215541 0.193052 -3.567969
v 1.289043 0.279035 -3.567969
v 1.215541 1.561689 -3.567969
v 1.215541 1.475706 -3.481986
v 1.289043 1.475706 -3.567969
v 1.289043 0.279035 -5.497970
v 1.215541 0.193052 -5.497970
v 1.215541 0.279035 -5.583953
v 1.215541 1.561689 -5.497970
v 1.289043 1.475706 -5.497970
v 1.215541 1.475706 -5.583953
v -1.215541 1.943227 -2.224728
v -1.289043 1.943227 -2.310711
v -1.215541 1.857243 -2.310711
v -1.215541 3.139897 -2.224728
v -1.215541 3.225881 -2.310711
v -1.289043 3.139897 -2.310711
v -1.215541 1.943227 -4.326694
v -1.215541 1.857244 -4.240712
v -1.289043 1.943227 -4.240712
v -1.215541 3.225881 -4.240712
v -1.215541 3.139897 -4.326694
v -1.289043 3.139897 -4.240712
v 1.215541 1.943227 -2.224728
v 1.215541 1.857243 -2.310711
v 1.289043 1.943227 -2.310711
v 1.215541 3.225881 -2.310711
v 1.215541 3.139897 -2.224728
v 1.289043 3.139897 -2.310711
v 1.289043 1.943227 -4.240712
v 1.215541 1.857244 -4.240712
v 1.215541 1.943227 -4.326694
v 1.215541 3.225881 -4.240712
v 1.289043 3.139897 -4.240712
v 1.215541 3.139897 -4.326694
v -1.215541 3.607418 -3.481986
v -1.289043 3.607418 -3.567969
v -1.215541 3.521435 -3.567969
v -1.215541 4.804089 -3.481986
v -1.215541 4.890072 -3.567969
v -1.289043 4.804089 -3.567969
v -1.215541 3.607418 -5.583953
v -1.215541 3.521435 -5.497970
v -1.289043 3.607418 -5.497970
v -1.215541 4.890072 -5.497970
v -1.215541 4.804089 -5.583953
v -1.289043 4.804089 -5.497970
v 1.215541 3.607418 -3.481986
v 1.215541 3.521435 -3.567969
v 1.289043 3.607418 -3.567969
v 1.215541 4.890072 -3.567969
v 1.215541 4.804089 -3.481986
v 1.289043 4.804089 -3.567969
v 1.289043 3.607418 -5.497970
v 1.215541 3.521435 -5.497970
v 1.215541 3.607418 -5.583953
v 1.215541 4.890072 -5.497970
v 1.289043 4.804089 -5.497970
v 1.215541 4.804089 -5.583953
v -1.215541 5.271608 -2.224728
v -1.289043 5.271608 -2.310711
v -1.215541 5.185625 -2.310711
v -1.215541 6.468279 -2.224728
v -1.215541 6.554262 -2.310711
v -1.289043 6.468279 -2.310711
v -1.215541 5.271608 -4.326694
v -1.215541 5.185625 -4.240712
v -1.289043 5.271608 -4.240712
v -1.215541 6.554262 -4.240712
v -1.215541 6.468279 -4.326694
v -1.289043 6.468279 -4.240712
v 1.215541 5.271608 -2.224728
v 1.215541 5.185625 -2.310711
v 1.289043 5.271608 -2.310711
v 1.215541 6.554262 -2.310711
v 1.215541 6.468279 -2.224728
v 1.289043 6.468279 -2.310711
v 1.289043 5.271608 -4.240712
v 1.215541 5.185625 -4.240712
v 1.215541 5.271608 -4.326694
v 1.215541 6.554262 -4.240712
v 1.289043 6.468279 -4.240712
v 1.215541 6.468279 -4.326694
vt 0.5834 0.7769
vt 0.7135 0.7769
vt 0.7135 0.9106
vt 0.5834 0.9106
vt 0.5834 0.7818
vt 0.7135 0.7818
vt 0.7135 0.9057
vt 0.5834 0.9057
vt 0.5834 0.7818
vt 0.7135 0.7818
vt 0.7135 0.9057
vt 0.5834 0.9057
vt 0.5834 0.7769
vt 0.7135 0.7769
vt 0.7135 0.9106
vt 0.5834 0.9106
vt 0.5816 0.7818
vt 0.7153 0.7818
vt 0.7153 0.9057
vt 0.5816 0.9057
vt 0.5816 0.7818
vt 0.7153 0.7818
vt 0.7153 0.9057
vt 0.5816 0.9057
vt 0.5834 0.7769
vt 0.7135 0.7769
vt 0.7135 0.9106
vt 0.5834 0.9106
vt 0.5834 0.7818
vt 0.7135 0.7818
vt 0.7135 0.9057
vt 0.5834 0.9057
vt 0.5834 0.7818
vt 0.7135 0.7818
vt 0.7135 0.9057
vt 0.5834 0.9057
vt 0.5834 0.7769
vt 0.7135 0.7769
vt 0.7135 0.9106
vt 0.5834 0.9106
vt 0.5816 0.7818
vt 0.7153 0.7818
vt 0.7153 0.9057
vt 0.5816 0.9057
vt 0.5816 0.7818
vt 0.7153 0.7818
vt 0.7153 0.9057
vt 0.5816 0.9057
vt 0.5834 0.7769
vt 0.7135 0.7769
vt 0.7135 0.9106
vt 0.5834 0.9106
vt 0.5834 0.7818
vt 0.7135 0.7818
vt 0.7135 0.9057
vt 0.5834 0.9057
vt 0.5834 0.7818
vt 0.7135 0.7818
vt 0.7135 0.9057
vt 0.5834 0.9057
vt 0.5834 0.7769
vt 0.7135 0.7769
vt 0.7135 0.9106
vt 0.5834 0.9106
vt 0.5816 0.7818
vt 0.7153 0.7818
vt 0.7153 0.9057
vt 0.5816 0.9057
vt 0.5816 0.7818
vt 0.7153 0.7818
vt 0.7153 0.9057
vt 0.5816 0.9057
vt 0.5834 0.7769
vt 0.7135 0.7769
vt 0.7135 0.9106
vt 0.5834 0.9106
vt 0.5834 0.7818
vt 0.7135 0.7818
vt 0.7135 0.9057
vt 0.5834 0.9057
vt 0.5834 0.7818
vt 0.7135 0.7818
vt 0.7135 0.9057
vt 0.5834 0.9057
vt 0.5834 0.7769
vt 0.7135 0.7769
vt 0.7135 0.9106
vt 0.5834 0.9106
vt 0.5816 0.7818
vt 0.7153 0.7818
vt 0.7153 0.9057
vt 0.5816 0.9057
vt 0.5816 0.7818
vt 0.7153 0.7818
vt 0.7153 0.9057
vt 0.5816 0.9057
vt 0.5834 0.7769
vt 0.7135 0.7769
vt 0.7135 0.9106
vt 0.5834 0.9106
vt 0.5834 0.7818
vt 0.7135 0.7818
vt 0.7135 0.9057
vt 0.5834 0.9057
vt 0.5834 0.7818
vt 0.7135 0.7818
vt 0.7135 0.9057
vt 0.5834 0.9057
vt 0.5834 0.7769
vt 0.7135 0.7769
vt 0.7135 0.9106
vt 0.5834 0.9106
vt 0.5816 0.7818
vt 0.7153 0.7818
vt 0.7153 0.9057
vt 0.5816 0.9057
vt 0.5816 0.7818
vt 0.7153 0.7818
vt 0.7153 0.9057
vt 0.5816 0.9057
vt 0.5834 0.7769
vt 0.7135 0.7769
vt 0.7135 0.9106
vt 0.5834 0.9106
vt 0.5834 0.7818
vt 0.7135 0.7818
vt 0.7135 0.9057
vt 0.5834 0.9057
vt 0.5834 0.7818
vt 0.7135 0.7818
vt 0.7135 0.9057
vt 0.5834 0.9057
vt 0.5834 0.7769
vt 0.7135 0.7769
vt 0.7135 0.9106
vt 0.5834 0.9106
vt 0.5816 0.7818
vt 0.7153 0.7818
vt 0.7153 0.9057
vt 0.5816 0.9057
vt 0.5816 0.7818
vt 0.7153 0.7818
vt 0.7153 0.9057
vt 0.5816 0.9057
vt 0.5834 0.7769
vt 0.7135 0.7769
vt 0.7135 0.9106
vt 0.5834 0.9106
vt 0.5834 0.7818
vt 0.7135 0.7818
vt 0.7135 0.9057
vt 0.5834 0.9057
vt 0.5834 0.7818
vt 0.7135 0.7818
vt 0.7135 0.9057
vt 0.5834 0.9057
vt 0.5834 0.7769
vt 0.7135 0.7769
vt 0.7135 0.9106
vt 0.5834 0.9106
vt 0.5816 0.7818
vt 0.7153 0.7818
vt 0.7153 0.9057
vt 0.5816 0.9057
vt 0.5816 0.7818
vt 0.7153 0.7818
vt 0.7153 0.9057
vt 0.5816 0.9057
vt 0.5834 0.7769
vt 0.7135 0.7769
vt 0.7135 0.9106
vt 0.5834 0.9106
vt 0.5834 0.7818
vt 0.7135 0.7818
vt 0.7135 0.9057
vt 0.5834 0.9057
vt 0.5834 0.7818
vt 0.7135 0.7818
vt 0.7135 0.9057
vt 0.5834 0.9057
vt 0.5834 0.7769
vt 0.7135 0.7769
vt 0.7135 0.9106
vt 0.5834 0.9106
vt 0.5816 0.7818
vt 0.7153 0.7818
vt 0.7153 0.9057
vt 0.5816 0.9057
vt 0.5816 0.7818
vt 0.7153 0.7818
vt 0.7153 0.9057
vt 0.5816 0.9057
vt 0.5834 0.7769
vt 0.7135 0.7769
vt 0.7135 0.9106
vt 0.5834 0.9106
vt 0.5834 0.7818
vt 0.7135 0.7818
vt 0.7135 0.9057
vt 0.5834 0.9057
vt 0.5834 0.7818
vt 0.7135 0.7818
vt 0.7135 0.9057
vt 0.5834 0.9057
vt 0.5834 0.7769
vt 0.7135 0.7769
vt 0.7135 0.9106
vt 0.5834 0.9106
vt 0.5816 0.7818
vt 0.7153 0.7818
vt 0.7153 0.9057
vt 0.5816 0.9057
vt 0.5816 0.7818
vt 0.7153 0.7818
vt 0.7153 0.9057
vt 0.5816 0.9057
vt 0.5834 0.7769
vt 0.7135 0.7769
vt 0.7135 0.9106
vt 0.5834 0.9106
vt 0.5834 0.7818
vt 0.7135 0.7818
vt 0.7135 0.9057
vt 0.5834 0.9057
vt 0.5834 0.7818
vt 0.7135 0.7818
vt 0.7135 0.9057
vt 0.5834 0.9057
vt 0.5834 0.7769
vt 0.7135 0.7769
vt 0.7135 0.9106
vt 0.5834 0.9106
vt 0.5816 0.7818
vt 0.7153 0.7818
vt 0.7153 0.9057
vt 0.5816 0.9057
vt 0.5816 0.7818
vt 0.7153 0.7818
vt 0.7153 0.9057
vt 0.5816 0.9057
vt 0.5834 0.7769
vt 0.7135 0.7769
vt 0.7135 0.9106
vt 0.5834 0.9106
vt 0.5834 0.7818
vt 0.7135 0.7818
vt 0.7135 0.9057
vt 0.5834 0.9057
vt 0.5834 0.7818
vt 0.7135 0.7818
vt 0.7135 0.9057
vt 0.5834 0.9057
vt 0.5834 0.7769
vt 0.7135 0.7769
vt 0.7135 0.9106
vt 0.5834 0.9106
vt 0.5816 0.7818
vt 0.7153 0.7818
vt 0.7153 0.9057
vt 0.5816 0.9057
vt 0.5816 0.7818
vt 0.7153 0.7818
vt 0.7153 0.9057
vt 0.5816 0.9057
vt 0.5834 0.7769
vt 0.7135 0.7769
vt 0.7135 0.9106
vt 0.5834 0.9106
vt 0.5834 0.7818
vt 0.7135 0.7818
vt 0.7135 0.9057
vt 0.5834 0.9057
vt 0.5834 0.7818
vt 0.7135 0.7818
vt 0.7135 0.9057
vt 0.5834 0.9057
vt 0.5834 0.7769
vt 0.7135 0.7769
vt 0.7135 0.9106
vt 0.5834 0.9106
vt 0.5816 0.7818
vt 0.7153 0.7818
vt 0.7153 0.9057
vt 0.5816 0.9057
vt 0.5816 0.7818
vt 0.7153 0.7818
vt 0.7153 0.9057
vt 0.5816 0.9057
vt 0.5834 0.7769
vt 0.7135 0.7769
vt 0.7135 0.9106
vt 0.5834 0.9106
vt 0.5834 0.7818
vt 0.7135 0.7818
vt 0.7135 0.9057
vt 0.5834 0.9057
vt 0.5834 0.7818
vt 0.7135 0.7818
vt 0.7135 0.9057
vt 0.5834 0.9057
vt 0.5834 0.7769
vt 0.7135 0.7769
vt 0.7135 0.9106
vt 0.5834 0.9106
vt 0.5816 0.7818
vt 0.7153 0.7818
vt 0.7153 0.9057
vt 0.5816 0.9057
vt 0.5816 0.7818
vt 0.7153 0.7818
vt 0.7153 0.9057
vt 0.5816 0.9057
vt 0.5834 0.7769
vt 0.7135 0.7769
vt 0.7135 0.9106
vt 0.5834 0.9106
vt 0.5834 0.7818
vt 0.7135 0.7818
vt 0.7135 0.9057
vt 0.5834 0.9057
vt 0.5834 0.7818
vt 0.7135 0.7818
vt 0.7135 0.9057
vt 0.5834 0.9057
vt 0.5834 0.7769
vt 0.7135 0.7769
vt 0.7135 0.9106
vt 0.5834 0.9106
vt 0.5816 0.7818
vt 0.7153 0.7818
vt 0.7153 0.9057
vt 0.5816 0.9057
vt 0.5816 0.7818
vt 0.7153 0.7818
vt 0.7153 0.9057
vt 0.5816 0.9057
vt 0.5834 0.7769
vt 0.7135 0.7769
vt 0.7135 0.9106
vt 0.5834 0.9106
vt 0.5834 0.7818
vt 0.7135 0.7818
vt 0.7135 0.9057
vt 0.5834 0.9057
vt 0.5834 0.7818
vt 0.7135 0.7818
vt 0.7135 0.9057
vt 0.5834 0.9057
vt 0.5834 0.7769
vt 0.7135 0.7769
vt 0.7135 0.9106
vt 0.5834 0.9106
vt 0.5816 0.7818
vt 0.7153 0.7818
vt 0.7153 0.9057
vt 0.5816 0.9057
vt 0.5816 0.7818
vt 0.7153 0.7818
vt 0.7153 0.9057
vt 0.5816 0.9057
vt 0.5834 0.7769
vt 0.7135 0.7769
vt 0.7135 0.9106
vt 0.5834 0.9106
vt 0.5834 0.7818
vt 0.7135 0.7818
vt 0.7135 0.9057
vt 0.5834 0.9057
vt 0.5834 0.7769
vt 0.7135 0.7769
vt 0.7135 0.9106
vt 0.5834 0.9106
vt 0.5816 0.7818
vt 0.7153 0.7818
vt 0.7153 0.9057
vt 0.5816 0.9057
vt 0.5816 0.7818
vt 0.7153 0.7818
vt 0.7153 0.9057
vt 0.5816 0.9057
vt 0.7193 0.9057
vt 0.7153 0.9146
vt 0.7153 0.7729
vt 0.7193 0.7818
vt 0.5816 0.9146
vt 0.5776 0.9057
vt 0.7193 0.9106
vt 0.7135 0.9146
vt 0.5816 0.9146
vt 0.5776 0.9057
vt 0.5776 0.7769
vt 0.5834 0.7729
vt 0.5834 0.9146
vt 0.5776 0.9057
vt 0.7135 0.7729
vt 0.7193 0.7769
vt 0.7193 0.9057
vt 0.7153 0.9146
vt 0.7153 0.7729
vt 0.7193 0.7818
vt 0.5816 0.9146
vt 0.5776 0.9057
vt 0.7193 0.9106
vt 0.7135 0.9146
vt 0.5816 0.9146
vt 0.5776 0.9057
vt 0.5776 0.7769
vt 0.5834 0.7729
vt 0.5834 0.9146
vt 0.5776 0.9057
vt 0.7135 0.7729
vt 0.7193 0.7769
vt 0.7193 0.9057
vt 0.7153 0.9146
vt 0.7153 0.7729
vt 0.7193 0.7818
vt 0.5816 0.9146
vt 0.5776 0.9057
vt 0.7193 0.9106
vt 0.7135 0.9146
vt 0.5816 0.9146
vt 0.5776 0.9057
vt 0.5776 0.7769
vt 0.5834 0.7729
vt 0.5834 0.9146
vt 0.5776 0.9057
vt 0.7135 0.7729
vt 0.7193 0.7769
vt 0.7193 0.9057
vt 0.7153 0.9146
vt 0.7153 0.7729
vt 0.7193 0.7818
vt 0.5816 0.9146
vt 0.5776 0.9057
vt 0.7193 0.9106
vt 0.7135 0.9146
vt 0.5816 0.9146
vt 0.5776 0.9057
vt 0.5776 0.7769
vt 0.5834 0.7729
vt 0.5834 0.9146
vt 0.5776 0.9057
vt 0.7135 0.7729
vt 0.7193 0.7769
vt 0.7193 0.9057
vt 0.7153 0.9146
vt 0.7153 0.7729
vt 0.7193 0.7818
vt 0.5816 0.9146
vt 0.5776 0.9057
vt 0.7193 0.9106
vt 0.7135 0.9146
vt 0.5816 0.9146
vt 0.5776 0.9057
vt 0.5776 0.7769
vt 0.5834 0.7729
vt 0.5834 0.9146
vt 0.5776 0.9057
vt 0.7135 0.7729
vt 0.7193 0.7769
vt 0.7193 0.9057
vt 0.7153 0.9146
vt 0.7153 0.7729
vt 0.7193 0.7818
vt 0.5816 0.9146
vt 0.5776 0.9057
vt 0.7193 0.9106
vt 0.7135 0.9146
vt 0.5816 0.9146
vt 0.5776 0.9057
vt 0.5776 0.7769
vt 0.5834 0.7729
vt 0.5834 0.9146
vt 0.5776 0.9057
vt 0.7135 0.7729
vt 0.7193 0.7769
vt 0.7193 0.9057
vt 0.7153 0.9146
vt 0.7153 0.7729
vt 0.7193 0.7818
vt 0.5816 0.9146
vt 0.5776 0.9057
vt 0.7193 0.9106
vt 0.7135 0.9146
vt 0.5816 0.9146
vt 0.5776 0.9057
vt 0.5776 0.7769
vt 0.5834 0.7729
vt 0.5834 0.9146
vt 0.5776 0.9057
vt 0.7135 0.7729
vt 0.7193 0.7769
vt 0.7193 0.9057
vt 0.7153 0.9146
vt 0.7153 0.7729
vt 0.7193 0.7818
vt 0.5816 0.9146
vt 0.5776 0.9057
vt 0.7193 0.9106
vt 0.7135 0.9146
vt 0.5816 0.9146
vt 0.5776 0.9057
vt 0.5776 0.7769
vt 0.5834 0.7729
vt 0.5834 0.9146
vt 0.5776 0.9057
vt 0.7135 0.7729
vt 0.7193 0.7769
vt 0.7193 0.9057
vt 0.7153 0.9146
vt 0.7153 0.7729
vt 0.7193 0.7818
vt 0.5816 0.9146
vt 0.5776 0.9057
vt 0.7193 0.9106
vt 0.7135 0.9146
vt 0.5816 0.9146
vt 0.5776 0.9057
vt 0.5776 0.7769
vt 0.5834 0.7729
vt 0.5834 0.9146
vt 0.5776 0.9057
vt 0.7135 0.7729
vt 0.7193 0.7769
vt 0.7193 0.9057
vt 0.7153 0.9146
vt 0.7153 0.7729
vt 0.7193 0.7818
vt 0.5816 0.9146
vt 0.5776 0.9057
vt 0.7193 0.9106
vt 0.7135 0.9146
vt 0.5816 0.9146
vt 0.5776 0.9057
vt 0.5776 0.7769
vt 0.5834 0.7729
vt 0.5834 0.9146
vt 0.5776 0.9057
vt 0.7135 0.7729
vt 0.7193 0.7769
vt 0.7193 0.9057
vt 0.7153 0.9146
vt 0.7153 0.7729
vt 0.7193 0.7818
vt 0.5816 0.9146
vt 0.5776 0.9057
vt 0.7193 0.9106
vt 0.7135 0.9146
vt 0.5816 0.9146
vt 0.5776 0.9057
vt 0.5776 0.7769
vt 0.5834 0.7729
vt 0.5834 0.9146
vt 0.5776 0.9057
vt 0.7135 0.7729
vt 0.7193 0.7769
vt 0.7193 0.9057
vt 0.7153 0.9146
vt 0.7153 0.7729
vt 0.7193 0.7818
vt 0.5816 0.9146
vt 0.5776 0.9057
vt 0.7193 0.9106
vt 0.7135 0.9146
vt 0.5816 0.9146
vt 0.5776 0.9057
vt 0.5776 0.7769
vt 0.5834 0.7729
vt 0.5834 0.9146
vt 0.5776 0.9057
vt 0.7135 0.7729
vt 0.7193 0.7769
vt 0.7193 0.9057
vt 0.7153 0.9146
vt 0.7153 0.7729
vt 0.7193 0.7818
vt 0.5816 0.9146
vt 0.5776 0.9057
vt 0.7193 0.9106
vt 0.7135 0.9146
vt 0.5816 0.9146
vt 0.5776 0.9057
vt 0.5776 0.7769
vt 0.5834 0.7729
vt 0.5834 0.9146
vt 0.5776 0.9057
vt 0.7135 0.7729
vt 0.7193 0.7769
vt 0.7193 0.9057
vt 0.7153 0.9146
vt 0.7153 0.7729
vt 0.7193 0.7818
vt 0.5816 0.9146
vt 0.5776 0.9057
vt 0.7193 0.9106
vt 0.7135 0.9146
vt 0.5816 0.9146
vt 0.5776 0.9057
vt 0.5776 0.7769
vt 0.5834 0.7729
vt 0.5834 0.9146
vt 0.5776 0.9057
vt 0.7135 0.7729
vt 0.7193 0.7769
vt 0.7193 0.9057
vt 0.7153 0.9146
vt 0.7153 0.7729
vt 0.7193 0.7818
vt 0.5816 0.9146
vt 0.5776 0.9057
vt 0.7193 0.9106
vt 0.7135 0.9146
vt 0.5816 0.9146
vt 0.5776 0.9057
vt 0.5776 0.7769
vt 0.5834 0.7729
vt 0.5834 0.9146
vt 0.5776 0.9057
vt 0.7135 0.7729
vt 0.7193 0.7769
vt 0.7193 0.9057
vt 0.7153 0.9146
vt 0.7153 0.7729
vt 0.7193 0.7818
vt 0.5816 0.9146
vt 0.5776 0.9057
vt 0.7193 0.9106
vt 0.7135 0.9146
vt 0.5816 0.9146
vt 0.5776 0.9057
vt 0.5776 0.7769
vt 0.5834 0.7729
vt 0.5834 0.9146
vt 0.5776 0.9057
vt 0.7135 0.7729
vt 0.7193 0.7769
vt 0.5834 0.9146
vt 0.5776 0.7818
vt 0.5834 0.7729
vt 0.7135 0.7729
vt 0.5776 0.7818
vt 0.7193 0.7769
vt 0.7193 0.9106
vt 0.5776 0.7818
vt 0.7135 0.9146
vt 0.5834 0.9146
vt 0.5776 0.9106
vt 0.5776 0.9106
vt 0.5776 0.7769
vt 0.5834 0.9146
vt 0.5776 0.7818
vt 0.5834 0.7729
vt 0.7135 0.7729
vt 0.5776 0.7818
vt 0.7193 0.7769
vt 0.7193 0.9106
vt 0.5776 0.7818
vt 0.7135 0.9146
vt 0.5834 0.9146
vt 0.5776 0.9106
vt 0.5776 0.9106
vt 0.5776 0.7769
vt 0.5834 0.9146
vt 0.5776 0.7818
vt 0.5834 0.7729
vt 0.7135 0.7729
vt 0.5776 0.7818
vt 0.7193 0.7769
vt 0.7193 0.9106
vt 0.5776 0.7818
vt 0.7135 0.9146
vt 0.5834 0.9146
vt 0.5776 0.9106
vt 0.5776 0.9106
vt 0.5776 0.7769
vt 0.5834 0.9146
vt 0.5776 0.7818
vt 0.5834 0.7729
vt 0.7135 0.7729
vt 0.5776 0.7818
vt 0.7193 0.7769
vt 0.7193 0.9106
vt 0.5776 0.7818
vt 0.7135 0.9146
vt 0.5834 0.9146
vt 0.5776 0.9106
vt 0.5776 0.9106
vt 0.5776 0.7769
vt 0.5834 0.9146
vt 0.5776 0.7818
vt 0.5834 0.7729
vt 0.7135 0.7729
vt 0.5776 0.7818
vt 0.7193 0.7769
vt 0.7193 0.9106
vt 0.5776 0.7818
vt 0.7135 0.9146
vt 0.5834 0.9146
vt 0.5776 0.9106
vt 0.5776 0.9106
vt 0.5776 0.7769
vt 0.5834 0.9146
vt 0.5776 0.7818
vt 0.5834 0.7729
vt 0.7135 0.7729
vt 0.5776 0.7818
vt 0.7193 0.7769
vt 0.7193 0.9106
vt 0.5776 0.7818
vt 0.7135 0.9146
vt 0.5834 0.9146
vt 0.5776 0.9106
vt 0.5776 0.9106
vt 0.5776 0.7769
vt 0.5834 0.9146
vt 0.5776 0.7818
vt 0.5834 0.7729
vt 0.7135 0.7729
vt 0.5776 0.7818
vt 0.7193 0.7769
vt 0.7193 0.9106
vt 0.5776 0.7818
vt 0.7135 0.9146
vt 0.5834 0.9146
vt 0.5776 0.9106
vt 0.5776 0.9106
vt 0.5776 0.7769
vt 0.5834 0.9146
vt 0.5776 0.7818
vt 0.5834 0.7729
vt 0.7135 0.7729
vt 0.5776 0.7818
vt 0.7193 0.7769
vt 0.7193 0.9106
vt 0.5776 0.7818
vt 0.7135 0.9146
vt 0.5834 0.9146
vt 0.5776 0.9106
vt 0.5776 0.9106
vt 0.5776 0.7769
vt 0.5834 0.9146
vt 0.5776 0.7818
vt 0.5834 0.7729
vt 0.7135 0.7729
vt 0.5776 0.7818
vt 0.7193 0.7769
vt 0.7193 0.9106
vt 0.5776 0.7818
vt 0.7135 0.9146
vt 0.5834 0.9146
vt 0.5776 0.9106
vt 0.5776 0.9106
vt 0.5776 0.7769
vt 0.5834 0.9146
vt 0.5776 0.7818
vt 0.5834 0.7729
vt 0.7135 0.7729
vt 0.5776 0.7818
vt 0.7193 0.7769
vt 0.7193 0.9106
vt 0.5776 0.7818
vt 0.7135 0.9146
vt 0.5834 0.9146
vt 0.5776 0.9106
vt 0.5776 0.9106
vt 0.5776 0.7769
vt 0.5834 0.9146
vt 0.5776 0.7818
vt 0.5834 0.7729
vt 0.7135 0.7729
vt 0.5776 0.7818
vt 0.7193 0.7769
vt 0.7193 0.9106
vt 0.5776 0.7818
vt 0.7135 0.9146
vt 0.5834 0.9146
vt 0.5776 0.9106
vt 0.5776 0.9106
vt 0.5776 0.7769
vt 0.5834 0.9146
vt 0.5776 0.7818
vt 0.5834 0.7729
vt 0.7135 0.7729
vt 0.5776 0.7818
vt 0.7193 0.7769
vt 0.7193 0.9106
vt 0.5776 0.7818
vt 0.7135 0.9146
vt 0.5834 0.9146
vt 0.5776 0.9106
vt 0.5776 0.9106
vt 0.5776 0.7769
vt 0.5834 0.9146
vt 0.5776 0.7818
vt 0.5834 0.7729
vt 0.7135 0.7729
vt 0.5776 0.7818
vt 0.7193 0.7769
vt 0.7193 0.9106
vt 0.5776 0.7818
vt 0.7135 0.9146
vt 0.5834 0.9146
vt 0.5776 0.9106
vt 0.5776 0.9106
vt 0.5776 0.7769
vt 0.5834 0.9146
vt 0.5776 0.7818
vt 0.5834 0.7729
vt 0.7135 0.7729
vt 0.5776 0.7818
vt 0.7193 0.7769
vt 0.7193 0.9106
vt 0.5776 0.7818
vt 0.7135 0.9146
vt 0.5834 0.9146
vt 0.5776 0.9106
vt 0.5776 0.9106
vt 0.5776 0.7769
vt 0.5834 0.9146
vt 0.5776 0.7818
vt 0.5834 0.7729
vt 0.7135 0.7729
vt 0.5776 0.7818
vt 0.7193 0.7769
vt 0.7193 0.9106
vt 0.5776 0.7818
vt 0.7135 0.9146
vt 0.5834 0.9146
vt 0.5776 0.9106
vt 0.5776 0.9106
vt 0.5776 0.7769
vt 0.5834 0.9146
vt 0.5776 0.7818
vt 0.5834 0.7729
vt 0.7135 0.7729
vt 0.5776 0.7818
vt 0.7193 0.7769
vt 0.7193 0.9106
vt 0.5776 0.7818
vt 0.7135 0.9146
vt 0.5834 0.9146
vt 0.5776 0.9106
vt 0.5776 0.9106
vt 0.5776 0.7769
vt 0.5834 0.7818
vt 0.7135 0.7818
vt 0.7135 0.9057
vt 0.5834 0.9057
vn 0.0000 -1.0000 -0.0000
vn 1.0000 0.0000 0.0000
vn -1.0000 0.0000 0.0000
vn 0.0000 1.0000 0.0000
vn 0.0000 0.0000 1.0000
vn 0.0000 0.0000 -1.0000
vn -0.6374 -0.5449 0.5449
vn -0.6374 0.5449 0.5449
vn -0.6374 -0.5449 -0.5449
vn -0.6374 0.5449 -0.5449
vn 0.6374 -0.5449 0.5449
vn 0.6374 0.5449 0.5449
vn 0.6374 -0.5449 -0.5449
vn 0.6374 0.5449 -0.5449
vn -0.7601 0.0000 0.6498
vn -0.7601 0.6498 0.0000
vn -0.7601 0.0000 -0.6498
vn -0.7601 -0.6498 -0.0000
vn 0.0000 0.7071 -0.7071
vn 0.7601 0.0000 -0.6498
vn 0.0000 -0.7071 -0.7071
vn 0.7601 0.6498 0.0000
vn 0.7601 0.0000 0.6498
vn 0.7601 -0.6498 -0.0000
vn 0.0000 0.7071 0.7071
vn 0.0000 -0.7071 0.7071
usemtl None
s off
f 11/21/7 16/22/7 28/23/7 22/24/7
f 31/25/8 26/26/8 23/27/8 27/28/8
f 38/29/9 44/30/9 41/31/9 34/32/9
f 24/33/10 30/34/10 18/35/10 13/36/10
f 25/37/11 12/38/11 9/39/11 21/40/11
f 19/41/12 32/42/12 29/43/12 15/44/12
f 35/45/7 40/46/7 52/47/7 46/48/7
f 55/49/8 50/50/8 47/51/8 51/52/8
f 62/53/9 68/54/9 65/55/9 58/56/9
f 48/57/10 54/58/10 42/59/10 37/60/10
f 49/61/11 36/62/11 33/63/11 45/64/11
f 43/65/12 56/66/12 53/67/12 39/68/12
f 59/69/7 64/70/7 76/71/7 70/72/7
f 79/73/8 74/74/8 71/75/8 75/76/8
f 86/77/9 92/78/9 89/79/9 82/80/9
f 72/81/10 78/82/10 66/83/10 61/84/10
f 73/85/11 60/86/11 57/87/11 69/88/11
f 67/89/12 80/90/12 77/91/12 63/92/12
f 83/93/7 88/94/7 100/95/7 94/96/7
f 103/97/8 98/98/8 95/99/8 99/100/8
f 110/101/9 116/102/9 113/103/9 106/104/9
f 96/105/10 102/106/10 90/107/10 85/108/10
f 97/109/11 84/110/11 81/111/11 93/112/11
f 91/113/12 104/114/12 101/115/12 87/116/12
f 107/117/7 112/118/7 124/119/7 118/120/7
f 127/121/8 122/122/8 119/123/8 123/124/8
f 134/125/9 140/126/9 137/127/9 130/128/9
f 120/129/10 126/130/10 114/131/10 109/132/10
f 121/133/11 108/134/11 105/135/11 117/136/11
f 115/137/12 128/138/12 125/139/12 111/140/12
f 131/141/7 136/142/7 148/143/7 142/144/7
f 151/145/8 146/146/8 143/147/8 147/148/8
f 158/149/9 164/150/9 161/151/9 154/152/9
f 144/153/10 150/154/10 138/155/10 133/156/10
f 145/157/11 132/158/11 129/159/11 141/160/11
f 139/161/12 152/162/12 149/163/12 135/164/12
f 155/165/7 160/166/7 172/167/7 166/168/7
f 175/169/8 170/170/8 167/171/8 171/172/8
f 182/173/9 188/174/9 185/175/9 178/176/9
f 168/177/10 174/178/10 162/179/10 157/180/10
f 169/181/11 156/182/11 153/183/11 165/184/11
f 163/185/12 176/186/12 173/187/12 159/188/12
f 179/189/7 184/190/7 196/191/7 190/192/7
f 199/193/8 194/194/8 191/195/8 195/196/8
f 206/197/9 212/198/9 209/199/9 202/200/9
f 192/201/10 198/202/10 186/203/10 181/204/10
f 193/205/11 180/206/11 177/207/11 189/208/11
f 187/209/12 200/210/12 197/211/12 183/212/12
f 203/213/7 208/214/7 220/215/7 214/216/7
f 223/217/8 218/218/8 215/219/8 219/220/8
f 230/221/9 236/222/9 233/223/9 226/224/9
f 216/225/10 222/226/10 210/227/10 205/228/10
f 217/229/11 204/230/11 201/231/11 213/232/11
f 211/233/12 224/234/12 221/235/12 207/236/12
f 227/237/7 232/238/7 244/239/7 238/240/7
f 247/241/8 242/242/8 239/243/8 243/244/8
f 254/245/9 260/246/9 257/247/9 250/248/9
f 240/249/10 246/250/10 234/251/10 229/252/10
f 241/253/11 228/254/11 225/255/11 237/256/11
f 235/257/12 248/258/12 245/259/12 231/260/12
f 251/261/7 256/262/7 268/263/7 262/264/7
f 271/265/8 266/266/8 263/267/8 267/268/8
f 278/269/9 284/270/9 281/271/9 274/272/9
f 264/273/10 270/274/10 258/275/10 253/276/10
f 265/277/11 252/278/11 249/279/11 261/280/11
f 259/281/12 272/282/12 269/283/12 255/284/12
f 275/285/7 280/286/7 292/287/7 286/288/7
f 295/289/8 290/290/8 287/291/8 291/292/8
f 302/293/9 308/294/9 305/295/9 298/296/9
f 288/297/10 294/298/10 282/299/10 277/300/10
f 289/301/11 276/302/11 273/303/11 285/304/11
f 283/305/12 296/306/12 293/307/12 279/308/12
f 299/309/7 304/310/7 316/311/7 310/312/7
f 319/313/8 314/314/8 311/315/8 315/316/8
f 326/317/9 332/318/9 329/319/9 322/320/9
f 312/321/10 318/322/10 306/323/10 301/324/10
f 313/325/11 300/326/11 297/327/11 309/328/11
f 307/329/12 320/330/12 317/331/12 303/332/12
f 323/333/7 328/334/7 340/335/7 334/336/7
f 343/337/8 338/338/8 335/339/8 339/340/8
f 350/341/9 356/342/9 353/343/9 346/344/9
f 336/345/10 342/346/10 330/347/10 325/348/10
f 337/349/11 324/350/11 321/351/11 333/352/11
f 331/353/12 344/354/12 341/355/12 327/356/12
f 347/357/7 352/358/7 364/359/7 358/360/7
f 367/361/8 362/362/8 359/363/8 363/364/8
f 374/365/9 380/366/9 377/367/9 370/368/9
f 360/369/10 366/370/10 354/371/10 349/372/10
f 361/373/11 348/374/11 345/375/11 357/376/11
f 355/377/12 368/378/12 365/379/12 351/380/12
f 371/381/7 376/382/7 388/383/7 382/384/7
f 391/385/8 386/386/8 383/387/8 387/388/8
f 384/389/10 390/390/10 378/391/10 373/392/10
f 385/393/11 372/394/11 369/395/11 381/396/11
f 379/397/12 392/398/12 389/399/12 375/400/12
f 9/39/13 10/401/13 11/402/13
f 12/38/14 13/403/14 14/404/14
f 15/44/15 16/405/15 17/406/15
f 18/35/16 19/407/16 20/408/16
f 21/40/17 22/409/17 23/410/17
f 24/33/18 25/411/18 26/412/18
f 27/28/19 28/413/19 29/414/19
f 30/34/20 31/415/20 32/416/20
f 33/63/13 34/417/13 35/418/13
f 36/62/14 37/419/14 38/420/14
f 39/68/15 40/421/15 41/422/15
f 42/59/16 43/423/16 44/424/16
f 45/64/17 46/425/17 47/426/17
f 48/57/18 49/427/18 50/428/18
f 51/52/19 52/429/19 53/430/19
f 54/58/20 55/431/20 56/432/20
f 57/87/13 58/433/13 59/434/13
f 60/86/14 61/435/14 62/436/14
f 63/92/15 64/437/15 65/438/15
f 66/83/16 67/439/16 68/440/16
f 69/88/17 70/441/17 71/442/17
f 72/81/18 73/443/18 74/444/18
f 75/76/19 76/445/19 77/446/19
f 78/82/20 79/447/20 80/448/20
f 81/111/13 82/449/13 83/450/13
f 84/110/14 85/451/14 86/452/14
f 87/116/15 88/453/15 89/454/15
f 90/107/16 91/455/16 92/456/16
f 93/112/17 94/457/17 95/458/17
f 96/105/18 97/459/18 98/460/18
f 99/100/19 100/461/19 101/462/19
f 102/106/20 103/463/20 104/464/20
f 105/135/13 106/465/13 107/466/13
f 108/134/14 109/467/14 110/468/14
f 111/140/15 112/469/15 113/470/15
f 114/131/16 115/471/16 116/472/16
f 117/136/17 118/473/17 119/474/17
f 120/129/18 121/475/18 122/476/18
f 123/124/19 124/477/19 125/478/19
f 126/130/20 127/479/20 128/480/20
f 129/159/13 130/481/13 131/482/13
f 132/158/14 133/483/14 134/484/14
f 135/164/15 136/485/15 137/486/15
f 138/155/16 139/487/16 140/488/16
f 141/160/17 142/489/17 143/490/17
f 144/153/18 145/491/18 146/492/18
f 147/148/19 148/493/19 149/494/19
f 150/154/20 151/495/20 152/496/20
f 153/183/13 154/497/13 155/498/13
f 156/182/14 157/499/14 158/500/14
f 159/188/15 160/501/15 161/502/15
f 162/179/16 163/503/16 164/504/16
f 165/184/17 166/505/17 167/506/17
f 168/177/18 169/507/18 170/508/18
f 171/172/19 172/509/19 173/510/19
f 174/178/20 175/511/20 176/512/20
f 177/207/13 178/513/13 179/514/13
f 180/206/14 181/515/14 182/516/14
f 183/212/15 184/517/15 185/518/15
f 186/203/16 187/519/16 188/520/16
f 189/208/17 190/521/17 191/522/17
f 192/201/18 193/523/18 194/524/18
f 195/196/19 196/525/19 197/526/19
f 198/202/20 199/527/20 200/528/20
f 201/231/13 202/529/13 203/530/13
f 204/230/14 205/531/14 206/532/14
f 207/236/15 208/533/15 209/534/15
f 210/227/16 211/535/16 212/536/16
f 213/232/17 214/537/17 215/538/17
f 216/225/18 217/539/18 218/540/18
f 219/220/19 220/541/19 221/542/19
f 222/226/20 223/543/20 224/544/20
f 225/255/13 226/545/13 227/546/13
f 228/254/14 229/547/14 230/548/14
f 231/260/15 232/549/15 233/550/15
f 234/251/16 235/551/16 236/552/16
f 237/256/17 238/553/17 239/554/17
f 240/249/18 241/555/18 242/556/18
f 243/244/19 244/557/19 245/558/19
f 246/250/20 247/559/20 248/560/20
f 249/279/13 250/561/13 251/562/13
f 252/278/14 253/563/14 254/564/14
f 255/284/15 256/565/15 257/566/15
f 258/275/16 259/567/16 260/568/16
f 261/280/17 262/569/17 263/570/17
f 264/273/18 265/571/18 266/572/18
f 267/268/19 268/573/19 269/574/19
f 270/274/20 271/575/20 272/576/20
f 273/303/13 274/577/13 275/578/13
f 276/302/14 277/579/14 278/580/14
f 279/308/15 280/581/15 281/582/15
f 282/299/16 283/583/16 284/584/16
f 285/304/17 286/585/17 287/586/17
f 288/297/18 289/587/18 290/588/18
f 291/292/19 292/589/19 293/590/19
f 294/298/20 295/591/20 296/592/20
f 297/327/13 298/593/13 299/594/13
f 300/326/14 301/595/14 302/596/14
f 303/332/15 304/597/15 305/598/15
f 306/323/16 307/599/16 308/600/16
f 309/328/17 310/601/17 311/602/17
f 312/321/18 313/603/18 314/604/18
f 315/316/19 316/605/19 317/606/19
f 318/322/20 319/607/20 320/608/20
f 321/351/13 322/609/13 323/610/13
f 324/350/14 325/611/14 326/612/14
f 327/356/15 328/613/15 329/614/15
f 330/347/16 331/615/16 332/616/16
f 333/352/17 334/617/17 335/618/17
f 336/345/18 337/619/18 338/620/18
f 339/340/19 340/621/19 341/622/19
f 342/346/20 343/623/20 344/624/20
f 345/375/13 346/625/13 347/626/13
f 348/374/14 349/627/14 350/628/14
f 351/380/15 352/629/15 353/630/15
f 354/371/16 355/631/16 356/632/16
f 357/376/17 358/633/17 359/634/17
f 360/369/18 361/635/18 362/636/18
f 363/364/19 364/637/19 365/638/19
f 366/370/20 367/639/20 368/640/20
f 369/395/13 370/641/13 371/642/13
f 372/394/14 373/643/14 374/644/14
f 375/400/15 376/645/15 377/646/15
f 378/391/16 379/647/16 380/648/16
f 381/396/17 382/649/17 383/650/17
f 384/389/18 385/651/18 386/652/18
f 387/388/19 388/653/19 389/654/19
f 390/390/20 391/655/20 392/656/20
f 9/39/21 12/38/21 14/404/21 10/401/21
f 13/36/22 18/35/22 20/408/22 14/657/22
f 19/41/23 15/44/23 17/406/23 20/658/23
f 16/22/24 11/21/24 10/659/24 17/660/24
f 18/35/25 30/34/25 32/416/25 19/407/25
f 31/25/26 27/28/26 29/414/26 32/661/26
f 28/23/27 16/22/27 15/662/27 29/663/27
f 30/34/28 24/33/28 26/412/28 31/415/28
f 25/37/29 21/40/29 23/410/29 26/664/29
f 22/24/30 28/23/30 27/665/30 23/666/30
f 24/33/31 13/36/31 12/667/31 25/411/31
f 11/21/32 22/24/32 21/668/32 9/669/32
f 33/63/21 36/62/21 38/420/21 34/417/21
f 37/60/22 42/59/22 44/424/22 38/670/22
f 43/65/23 39/68/23 41/422/23 44/671/23
f 40/46/24 35/45/24 34/672/24 41/673/24
f 42/59/25 54/58/25 56/432/25 43/423/25
f 55/49/26 51/52/26 53/430/26 56/674/26
f 52/47/27 40/46/27 39/675/27 53/676/27
f 54/58/28 48/57/28 50/428/28 55/431/28
f 49/61/29 45/64/29 47/426/29 50/677/29
f 46/48/30 52/47/30 51/678/30 47/679/30
f 48/57/31 37/60/31 36/680/31 49/427/31
f 35/45/32 46/48/32 45/681/32 33/682/32
f 57/87/21 60/86/21 62/436/21 58/433/21
f 61/84/22 66/83/22 68/440/22 62/683/22
f 67/89/23 63/92/23 65/438/23 68/684/23
f 64/70/24 59/69/24 58/685/24 65/686/24
f 66/83/25 78/82/25 80/448/25 67/439/25
f 79/73/26 75/76/26 77/446/26 80/687/26
f 76/71/27 64/70/27 63/688/27 77/689/27
f 78/82/28 72/81/28 74/444/28 79/447/28
f 73/85/29 69/88/29 71/442/29 74/690/29
f 70/72/30 76/71/30 75/691/30 71/692/30
f 72/81/31 61/84/31 60/693/31 73/443/31
f 59/69/32 70/72/32 69/694/32 57/695/32
f 81/111/21 84/110/21 86/452/21 82/449/21
f 85/108/22 90/107/22 92/456/22 86/696/22
f 91/113/23 87/116/23 89/454/23 92/697/23
f 88/94/24 83/93/24 82/698/24 89/699/24
f 90/107/25 102/106/25 104/464/25 91/455/25
f 103/97/26 99/100/26 101/462/26 104/700/26
f 100/95/27 88/94/27 87/701/27 101/702/27
f 102/106/28 96/105/28 98/460/28 103/463/28
f 97/109/29 93/112/29 95/458/29 98/703/29
f 94/96/30 100/95/30 99/704/30 95/705/30
f 96/105/31 85/108/31 84/706/31 97/459/31
f 83/93/32 94/96/32 93/707/32 81/708/32
f 105/135/21 108/134/21 110/468/21 106/465/21
f 109/132/22 114/131/22 116/472/22 110/709/22
f 115/137/23 111/140/23 113/470/23 116/710/23
f 112/118/24 107/117/24 106/711/24 113/712/24
f 114/131/25 126/130/25 128/480/25 115/471/25
f 127/121/26 123/124/26 125/478/26 128/713/26
f 124/119/27 112/118/27 111/714/27 125/715/27
f 126/130/28 120/129/28 122/476/28 127/479/28
f 121/133/29 117/136/29 119/474/29 122/716/29
f 118/120/30 124/119/30 123/717/30 119/718/30
f 120/129/31 109/132/31 108/719/31 121/475/31
f 107/117/32 118/120/32 117/720/32 105/721/32
f 129/159/21 132/158/21 134/484/21 130/481/21
f 133/156/22 138/155/22 140/488/22 134/722/22
f 139/161/23 135/164/23 137/486/23 140/723/23
f 136/142/24 131/141/24 130/724/24 137/725/24
f 138/155/25 150/154/25 152/496/25 139/487/25
f 151/145/26 147/148/26 149/494/26 152/726/26
f 148/143/27 136/142/27 135/727/27 149/728/27
f 150/154/28 144/153/28 146/492/28 151/495/28
f 145/157/29 141/160/29 143/490/29 146/729/29
f 142/144/30 148/143/30 147/730/30 143/731/30
f 144/153/31 133/156/31 132/732/31 145/491/31
f 131/141/32 142/144/32 141/733/32 129/734/32
f 153/183/21 156/182/21 158/500/21 154/497/21
f 157/180/22 162/179/22 164/504/22 158/735/22
f 163/185/23 159/188/23 161/502/23 164/736/23
f 160/166/24 155/165/24 154/737/24 161/738/24
f 162/179/25 174/178/25 176/512/25 163/503/25
f 175/169/26 171/172/26 173/510/26 176/739/26
f 172/167/27 160/166/27 159/740/27 173/741/27
f 174/178/28 168/177/28 170/508/28 175/511/28
f 169/181/29 165/184/29 167/506/29 170/742/29
f 166/168/30 172/167/30 171/743/30 167/744/30
f 168/177/31 157/180/31 156/745/31 169/507/31
f 155/165/32 166/168/32 165/746/32 153/747/32
f 177/207/21 180/206/21 182/516/21 178/513/21
f 181/204/22 186/203/22 188/520/22 182/748/22
f 187/209/23 183/212/23 185/518/23 188/749/23
f 184/190/24 179/189/24 178/750/24 185/751/24
f 186/203/25 198/202/25 200/528/25 187/519/25
f 199/193/26 195/196/26 197/526/26 200/752/26
f 196/191/27 184/190/27 183/753/27 197/754/27
f 198/202/28 192/201/28 194/524/28 199/527/28
f 193/205/29 189/208/29 191/522/29 194/755/29
f 190/192/30 196/191/30 195/756/30 191/757/30
f 192/201/31 181/204/31 180/758/31 193/523/31
f 179/189/32 190/192/32 189/759/32 177/760/32
f 201/231/21 204/230/21 206/532/21 202/529/21
f 205/228/22 210/227/22 212/536/22 206/761/22
f 211/233/23 207/236/23 209/534/23 212/762/23
f 208/214/24 203/213/24 202/763/24 209/764/24
f 210/227/25 222/226/25 224/544/25 211/535/25
f 223/217/26 219/220/26 221/542/26 224/765/26
f 220/215/27 208/214/27 207/766/27 221/767/27
f 222/226/28 216/225/28 218/540/28 223/543/28
f 217/229/29 213/232/29 215/538/29 218/768/29
f 214/216/30 220/215/30 219/769/30 215/770/30
f 216/225/31 205/228/31 204/771/31 217/539/31
f 203/213/32 214/216/32 213/772/32 201/773/32
f 225/255/21 228/254/21 230/548/21 226/545/21
f 229/252/22 234/251/22 236/552/22 230/774/22
f 235/257/23 231/260/23 233/550/23 236/775/23
f 232/238/24 227/237/24 226/776/24 233/777/24
f 234/251/25 246/250/25 248/560/25 235/551/25
f 247/241/26 243/244/26 245/558/26 248/778/26
f 244/239/27 232/238/27 231/779/27 245/780/27
f 246/250/28 240/249/28 242/556/28 247/559/28
f 241/253/29 237/256/29 239/554/29 242/781/29
f 238/240/30 244/239/30 243/782/30 239/783/30
f 240/249/31 229/252/31 228/784/31 241/555/31
f 227/237/32 238/240/32 237/785/32 225/786/32
f 249/279/21 252/278/21 254/564/21 250/561/21
f 253/276/22 258/275/22 260/568/22 254/787/22
f 259/281/23 255/284/23 257/566/23 260/788/23
f 256/262/24 251/261/24 250/789/24 257/790/24
f 258/275/25 270/274/25 272/576/25 259/567/25
f 271/265/26 267/268/26 269/574/26 272/791/26
f 268/263/27 256/262/27 255/792/27 269/793/27
f 270/274/28 264/273/28 266/572/28 271/575/28
f 265/277/29 261/280/29 263/570/29 266/794/29
f 262/264/30 268/263/30 267/795/30 263/796/30
f 264/273/31 253/276/31 252/797/31 265/571/31
f 251/261/32 262/264/32 261/798/32 249/799/32
f 273/303/21 276/302/21 278/580/21 274/577/21
f 277/300/22 282/299/22 284/584/22 278/800/22
f 283/305/23 279/308/23 281/582/23 284/801/23
f 280/286/24 275/285/24 274/802/24 281/803/24
f 282/299/25 294/298/25 296/592/25 283/583/25
f 295/289/26 291/292/26 293/590/26 296/804/26
f 292/287/27 280/286/27 279/805/27 293/806/27
f 294/298/28 288/297/28 290/588/28 295/591/28
f 289/301/29 285/304/29 287/586/29 290/807/29
f 286/288/30 292/287/30 291/808/30 287/809/30
f 288/297/31 277/300/31 276/810/31 289/587/31
f 275/285/32 286/288/32 285/811/32 273/812/32
f 297/327/21 300/326/21 302/596/21 298/593/21
f 301/324/22 306/323/22 308/600/22 302/813/22
f 307/329/23 303/332/23 305/598/23 308/814/23
f 304/310/24 299/309/24 298/815/24 305/816/24
f 306/323/25 318/322/25 320/608/25 307/599/25
f 319/313/26 315/316/26 317/606/26 320/817/26
f 316/311/27 304/310/27 303/818/27 317/819/27
f 318/322/28 312/321/28 314/604/28 319/607/28
f 313/325/29 309/328/29 311/602/29 314/820/29
f 310/312/30 316/311/30 315/821/30 311/822/30
f 312/321/31 301/324/31 300/823/31 313/603/31
f 299/309/32 310/312/32 309/824/32 297/825/32
f 321/351/21 324/350/21 326/612/21 322/609/21
f 325/348/22 330/347/22 332/616/22 326/826/22
f 331/353/23 327/356/23 329/614/23 332/827/23
f 328/334/24 323/333/24 322/828/24 329/829/24
f 330/347/25 342/346/25 344/624/25 331/615/25
f 343/337/26 339/340/26 341/622/26 344/830/26
f 340/335/27 328/334/27 327/831/27 341/832/27
f 342/346/28 336/345/28 338/620/28 343/623/28
f 337/349/29 333/352/29 335/618/29 338/833/29
f 334/336/30 340/335/30 339/834/30 335/835/30
f 336/345/31 325/348/31 324/836/31 337/619/31
f 323/333/32 334/336/32 333/837/32 321/838/32
f 345/375/21 348/374/21 350/628/21 346/625/21
f 349/372/22 354/371/22 356/632/22 350/839/22
f 355/377/23 351/380/23 353/630/23 356/840/23
f 352/358/24 347/357/24 346/841/24 353/842/24
f 354/371/25 366/370/25 368/640/25 355/631/25
f 367/361/26 363/364/26 365/638/26 368/843/26
f 364/359/27 352/358/27 351/844/27 365/845/27
f 366/370/28 360/369/28 362/636/28 367/639/28
f 361/373/29 357/376/29 359/634/29 362/846/29
f 358/360/30 364/359/30 363/847/30 359/848/30
f 360/369/31 349/372/31 348/849/31 361/635/31
f 347/357/32 358/360/32 357/850/32 345/851/32
f 369/395/21 372/394/21 374/644/21 370/641/21
f 373/392/22 378/391/22 380/648/22 374/852/22
f 379/397/23 375/400/23 377/646/23 380/853/23
f 376/382/24 371/381/24 370/854/24 377/855/24
f 378/391/25 390/390/25 392/656/25 379/647/25
f 391/385/26 387/388/26 389/654/26 392/856/26
f 388/383/27 376/382/27 375/857/27 389/858/27
f 390/390/28 384/389/28 386/652/28 391/655/28
f 385/393/29 381/396/29 383/650/29 386/859/29
f 382/384/30 388/383/30 387/860/30 383/861/30
f 384/389/31 373/392/31 372/862/31 385/651/31
f 371/381/32 382/384/32 381/863/32 369/864/32
f 14/865/9 20/866/9 17/867/9 10/868/9
o Cube.035_Cube.037
v -1.215541 6.935801 5.264132
v -1.289043 6.935801 5.178148
v -1.215541 6.849817 5.178148
v -1.215541 8.132471 5.264132
v -1.215541 8.218454 5.178148
v -1.289043 8.132471 5.178148
v -1.215541 6.935801 -5.015436
v -1.215541 6.849817 -4.929453
v -1.289043 6.935801 -4.929453
v -1.215541 8.218454 -4.929453
v -1.215541 8.132471 -5.015436
v -1.289043 8.132471 -4.929453
v 1.215541 6.935801 5.264132
v 1.215541 6.849817 5.178148
v 1.289043 6.935801 5.178148
v 1.215541 8.218454 5.178148
v 1.215541 8.132471 5.264132
v 1.289043 8.132471 5.178148
v 1.289043 6.935801 -4.929453
v 1.215541 6.849817 -4.929453
v 1.215541 6.935801 -5.015436
v 1.215541 8.218454 -4.929453
v 1.289043 8.132471 -4.929453
v 1.215541 8.132471 -5.015436
vt 0.1119 0.7824
vt 0.2397 0.7824
vt 0.2397 0.9051
vt 0.1119 0.9051
vt 0.1119 0.7869
vt 0.2397 0.7869
vt 0.2397 0.9006
vt 0.1119 0.9006
vt 0.1119 0.7824
vt 0.2397 0.7824
vt 0.2397 0.9051
vt 0.1119 0.9051
vt 0.1145 0.7869
vt 0.2371 0.7869
vt 0.2371 0.9006
vt 0.1145 0.9006
vt 0.1145 0.7869
vt 0.2371 0.7869
vt 0.2371 0.9006
vt 0.1145 0.9006
vt 0.2408 0.9006
vt 0.2371 0.9088
vt 0.2371 0.7787
vt 0.2408 0.7869
vt 0.1145 0.9088
vt 0.1108 0.9006
vt 0.2408 0.9051
vt 0.2397 0.9088
vt 0.1145 0.9088
vt 0.1108 0.9006
vt 0.1108 0.7824
vt 0.1119 0.7787
vt 0.1119 0.9088
vt 0.1108 0.9006
vt 0.2397 0.7787
vt 0.2408 0.7824
vt 0.1119 0.9088
vt 0.1108 0.7869
vt 0.1119 0.7787
vt 0.2397 0.7787
vt 0.1108 0.7869
vt 0.2408 0.7824
vt 0.2408 0.9051
vt 0.1108 0.7869
vt 0.2397 0.9088
vt 0.1119 0.9088
vt 0.1108 0.9051
vt 0.1108 0.9051
vt 0.1108 0.7824
vt 0.1119 0.7869
vt 0.2397 0.7869
vt 0.2397 0.9006
vt 0.1119 0.9006
vn 0.0000 -1.0000 0.0000
vn 1.0000 0.0000 0.0000
vn 0.0000 1.0000 0.0000
vn 0.0000 0.0000 1.0000
vn 0.0000 0.0000 -1.0000
vn -0.6374 -0.5449 0.5449
vn -0.6374 0.5449 0.5449
vn -0.6374 -0.5449 -0.5449
vn -0.6374 0.5449 -0.5449
vn 0.6374 -0.5449 0.5449
vn 0.6374 0.5449 0.5449
vn 0.6374 -0.5449 -0.5449
vn 0.6374 0.5449 -0.5449
vn -0.7601 0.0000 0.6498
vn -0.7601 0.6498 0.0000
vn -0.7601 0.0000 -0.6498
vn -0.7601 -0.6498 0.0000
vn 0.0000 0.7071 -0.7071
vn 0.7601 0.0000 -0.6498
vn 0.0000 -0.7071 -0.7071
vn 0.7601 0.6498 0.0000
vn 0.7601 0.0000 0.6498
vn 0.7601 -0.6498 0.0000
vn 0.0000 0.7071 0.7071
vn 0.0000 -0.7071 0.7071
vn -1.0000 0.0000 0.0000
usemtl None
s off
f 395/869/33 400/870/33 412/871/33 406/872/33
f 415/873/34 410/874/34 407/875/34 411/876/34
f 408/877/35 414/878/35 402/879/35 397/880/35
f 409/881/36 396/882/36 393/883/36 405/884/36
f 403/885/37 416/886/37 413/887/37 399/888/37
f 393/883/38 394/889/38 395/890/38
f 396/882/39 397/891/39 398/892/39
f 399/888/40 400/893/40 401/894/40
f 402/879/41 403/895/41 404/896/41
f 405/884/42 406/897/42 407/898/42
f 408/877/43 409/899/43 410/900/43
f 411/876/44 412/901/44 413/902/44
f 414/878/45 415/903/45 416/904/45
f 393/883/46 396/882/46 398/892/46 394/889/46
f 397/880/47 402/879/47 404/896/47 398/905/47
f 403/885/48 399/888/48 401/894/48 404/906/48
f 400/870/49 395/869/49 394/907/49 401/908/49
f 402/879/50 414/878/50 416/904/50 403/895/50
f 415/873/51 411/876/51 413/902/51 416/909/51
f 412/871/52 400/870/52 399/910/52 413/911/52
f 414/878/53 408/877/53 410/900/53 415/903/53
f 409/881/54 405/884/54 407/898/54 410/912/54
f 406/872/55 412/871/55 411/913/55 407/914/55
f 408/877/56 397/880/56 396/915/56 409/899/56
f 395/869/57 406/872/57 405/916/57 393/917/57
f 398/918/58 404/919/58 401/920/58 394/921/58
